{
    "course": "AWS Lambda",
    "instructor": "Sample sample",
    "instructor-full": {
        "first-name": "Sample",
        "last-name": "sample",
        "awesomeness-level": 9000
    },
    "section-list": [
        "Introduction",
        "Deploying", 
        "Learning",
        "Real World"
    ],
    "lectures": [
        {
            "lecture-id": 1,
            "lecture-name": "intro",
            "lecture-length": 3600
        },
        {
            "lecture-id": 2,
            "lecture-name": "outro",
            "lecture-length": 3600
        }
    ]
}